%YAML 1.1
%TAG !u! tag:unity3d.com,2011:
--- !u!74 &7400000
AnimationClip:
  m_ObjectHideFlags: 0
  m_CorrespondingSourceObject: {fileID: 0}
  m_PrefabInstance: {fileID: 0}
  m_PrefabAsset: {fileID: 0}
  m_Name: Run
  serializedVersion: 6
  m_Legacy: 0
  m_Compressed: 0
  m_UseHighQualityCurve: 1
  m_RotationCurves: []
  m_CompressedRotationCurves: []
  m_EulerCurves: []
  m_PositionCurves: []
  m_ScaleCurves: []
  m_FloatCurves: []
  m_PPtrCurves:
  - curve:
    - time: 0
      value: {fileID: 21300000, guid: d346104aa9a288946aaaa9a1354a2f7f, type: 3}
    - time: 0.083333336
      value: {fileID: 21300000, guid: 1e5d66a0ef8d3464b93556ce5d93e3e1, type: 3}
    - time: 0.16666667
      value: {fileID: 21300000, guid: aa27561a433ef6244ad1b2c226b1b644, type: 3}
    - time: 0.25
      value: {fileID: 21300000, guid: 52557f54c84ed064ea5af7ae795fe59f, type: 3}
    - time: 0.33333334
      value: {fileID: 21300000, guid: 33d76389a98e7d34ea2d04988824d16b, type: 3}
    - time: 0.41666666
      value: {fileID: 21300000, guid: 74c35c871a6e1c0468b49c86a594c05e, type: 3}
    - time: 0.5
      value: {fileID: 21300000, guid: 610919d3ba72e2341953d79c02ce298b, type: 3}
    - time: 0.5833333
      value: {fileID: 21300000, guid: 047429a31c6c7ec41a4b787e31a57c95, type: 3}
    attribute: m_Sprite
    path: 
    classID: 212
    script: {fileID: 0}
  m_SampleRate: 12
  m_WrapMode: 0
  m_Bounds:
    m_Center: {x: 0, y: 0, z: 0}
    m_Extent: {x: 0, y: 0, z: 0}
  m_ClipBindingConstant:
    genericBindings:
    - serializedVersion: 2
      path: 0
      attribute: 0
      script: {fileID: 0}
      typeID: 212
      customType: 23
      isPPtrCurve: 1
    pptrCurveMapping:
    - {fileID: 21300000, guid: d346104aa9a288946aaaa9a1354a2f7f, type: 3}
    - {fileID: 21300000, guid: 1e5d66a0ef8d3464b93556ce5d93e3e1, type: 3}
    - {fileID: 21300000, guid: aa27561a433ef6244ad1b2c226b1b644, type: 3}
    - {fileID: 21300000, guid: 52557f54c84ed064ea5af7ae795fe59f, type: 3}
    - {fileID: 21300000, guid: 33d76389a98e7d34ea2d04988824d16b, type: 3}
    - {fileID: 21300000, guid: 74c35c871a6e1c0468b49c86a594c05e, type: 3}
    - {fileID: 21300000, guid: 610919d3ba72e2341953d79c02ce298b, type: 3}
    - {fileID: 21300000, guid: 047429a31c6c7ec41a4b787e31a57c95, type: 3}
  m_AnimationClipSettings:
    serializedVersion: 2
    m_AdditiveReferencePoseClip: {fileID: 0}
    m_AdditiveReferencePoseTime: 0
    m_StartTime: 0
    m_StopTime: 0.6666666
    m_OrientationOffsetY: 0
    m_Level: 0
    m_CycleOffset: 0
    m_HasAdditiveReferencePose: 0
    m_LoopTime: 1
    m_LoopBlend: 0
    m_LoopBlendOrientation: 0
    m_LoopBlendPositionY: 0
    m_LoopBlendPositionXZ: 0
    m_KeepOriginalOrientation: 0
    m_KeepOriginalPositionY: 1
    m_KeepOriginalPositionXZ: 0
    m_HeightFromFeet: 0
    m_Mirror: 0
  m_EditorCurves: []
  m_EulerEditorCurves: []
  m_HasGenericRootTransform: 0
  m_HasMotionFloatCurves: 0
  m_Events: []
